-------------------------------------------------------------------------------
Test set: pl.sda.intermediate.shop.CategoryDAOTest
-------------------------------------------------------------------------------
Tests run: 1, Failures: 0, Errors: 0, Skipped: 0, Time elapsed: 0.011 s - in pl.sda.intermediate.shop.CategoryDAOTest
