-------------------------------------------------------------------------------
Test set: pl.sda.intermediate.books.BooksTest
-------------------------------------------------------------------------------
Tests run: 1, Failures: 0, Errors: 0, Skipped: 0, Time elapsed: 1.54 s - in pl.sda.intermediate.books.BooksTest
